Data manipulation with dplyr, purrr and broom
…
---
# Summarise and Group_by

```r
french_fries %>%
    group_by(time, treatment) %>%
    summarise(mean_rancid = mean(rancid), sd_rancid = sd(rancid))
# A tibble: 30 x 4
# Groups:   time [?]
     time treatment mean_rancid sd_rancid
   <fctr>    <fctr>       <dbl>     <dbl>
 1      1         1    2.758333  3.212870
 2      1         2    1.716667  2.714801
 3      1         3    2.600000  3.202037
 4      2         1    3.900000  4.374730
 5      2         2    2.141667  3.117540
 6      2         3    2.495833  3.378767
 7      3         1    4.650000  3.933358
 8      3         2    2.895833  3.773532
 9      3         3    3.600000  3.592867
10      4         1    2.079167  2.394737
# ... with 20 more rows
```
…
---

--- 
# Extract values for each coefficient

Extract all countries automatically (hello `map` again!)

```r
by_country$coefs <- by_country$model %>% purrr::map(broom::tidy)
by_country
# A tibble: 142 x 5
   continent     country              data    model                coefs
      <fctr>      <fctr>            <list>   <list>               <list>
 1      Asia Afghanistan <tibble [12 x 4]> <S3: lm> <data.frame [2 x 5]>
 2    Europe     Albania <tibble [12 x 4]> <S3: lm> <data.frame [2 x 5]>
 3    Africa     Algeria <tibble [12 x 4]> <S3: lm> <data.frame [2 x 5]>
 4    Africa      Angola <tibble [12 x 4]> <S3: lm> <data.frame [2 x 5]>
 5  Americas   Argentina <tibble [12 x 4]> <S3: lm> <data.frame [2 x 5]>
 6   Oceania   Australia <tibble [12 x 4]> <S3: lm> <data.frame [2 x 5]>
 7    Europe     Austria <tibble [12 x 4]> <S3: lm> <data.frame [2 x 5]>
 8      Asia     Bahrain <tibble [12 x 4]> <S3: lm> <data.frame [2 x 5]>
 9      Asia  Bangladesh <tibble [12 x 4]> <S3: lm> <data.frame [2 x 5]>
10    Europe     Belgium <tibble [12 x 4]> <S3: lm> <data.frame [2 x 5]>
# ... with 132 more rows
```

---

--- 
# Get the coefficients into one data set

`unnest` pulls little data frames back into the whole frame

```r
by_country_coefs <- by_country %>% unnest(coefs)
by_country_coefs
# A tibble: 284 x 7
   continent     country        term   estimate   std.error  statistic
      <fctr>      <fctr>       <chr>      <dbl>       <dbl>      <dbl>
 1      Asia Afghanistan (Intercept) 29.3566375 0.698981278  41.999176
 2      Asia Afghanistan        year  0.2753287 0.020450934  13.462890
 3    Europe     Albania (Intercept) 58.5597618 1.133575812  51.659325
 4    Europe     Albania        year  0.3346832 0.033166387  10.091036
 5    Africa     Algeria (Intercept) 42.2364149 0.756269040  55.848399
 6    Africa     Algeria        year  0.5692797 0.022127070  25.727749
 7    Africa      Angola (Intercept) 31.7079741 0.804287463  39.423683
 8    Africa      Angola        year  0.2093399 0.023532003   8.895964
 9  Americas   Argentina (Intercept) 62.2250191 0.167091314 372.401279
10  Americas   Argentina        year  0.2317084 0.004888791  47.395847
# ... with 274 more rows, and 1 more variables: p.value <dbl>
```
…
