Tidying your data
…
- Writing readable code using **pipes**
- What is **tidy data**? Why do you want tidy data? Getting your data into tidy form using tidyr.
- Reading different **data formats**
- String operations, working with **text**

---
# Pipes `%>%`

Pipes allow the code to be *read* like a sequence of operations

```r
student2012.sub <- readRDS("../data/student_sub.rds")
# table(student2012.sub$CNT)
student2012.sub %>% group_by(CNT) %>% tally()
# A tibble: 43 x 2
     CNT     n
   <chr> <int>
 1   ARE 11500
 2   AUS 14481
 3   AUT  4755
 4   BEL  8597
 5   BGR  5282
 6   BRA  5506
 7   CAN 21544
 8   CHL  6856
 9   COL  9073
10   CZE  5327
# ... with 33 more rows
```
…
---
# Gather Column Names into Long Form

```r
gather(genes, variable, expr, -id) 
# A tibble: 33 x 3
       id variable      expr
    <chr>    <chr>     <dbl>
 1 Gene 1  WI-6.R1 2.1824242
 2 Gene 2  WI-6.R1 1.4642236
 3 Gene 3  WI-6.R1 2.0317925
 4 Gene 1  WI-6.R2 2.2042219
 5 Gene 2  WI-6.R2 0.5854472
 6 Gene 3  WI-6.R2 0.8701078
 7 Gene 1  WI-6.R4 4.1956364
 8 Gene 2  WI-6.R4 1.8592378
 9 Gene 3  WI-6.R4 3.2819835
10 Gene 1  WM-6.R1 2.6273345
# ... with 23 more rows
```

---
# Separate Columns

```r
genes %>%
  gather(variable, expr, -id) %>%
  separate(variable, c("trt", "leftover"), "-") 
# A tibble: 33 x 4
       id   trt leftover      expr
 *  <chr> <chr>    <chr>     <dbl>
 1 Gene 1    WI     6.R1 2.1824242
 2 Gene 2    WI     6.R1 1.4642236
 3 Gene 3    WI     6.R1 2.0317925
 4 Gene 1    WI     6.R2 2.2042219
 5 Gene 2    WI     6.R2 0.5854472
 6 Gene 3    WI     6.R2 0.8701078
 7 Gene 1    WI     6.R4 4.1956364
 8 Gene 2    WI     6.R4 1.8592378
 9 Gene 3    WI     6.R4 3.2819835
10 Gene 1    WM     6.R1 2.6273345
# ... with 23 more rows
```

---

```r
genes %>%
  gather(variable, expr, -id) %>%
  separate(variable, c("trt", "leftover"), "-") %>%
  separate(leftover, c("time", "rep"), "\\.") 
# A tibble: 33 x 5
       id   trt  time   rep      expr
 *  <chr> <chr> <chr> <chr>     <dbl>
 1 Gene 1    WI     6    R1 2.1824242
 2 Gene 2    WI     6    R1 1.4642236
 3 Gene 3    WI     6    R1 2.0317925
 4 Gene 1    WI     6    R2 2.2042219
 5 Gene 2    WI     6    R2 0.5854472
 6 Gene 3    WI     6    R2 0.8701078
 7 Gene 1    WI     6    R4 4.1956364
 8 Gene 2    WI     6    R4 1.8592378
 9 Gene 3    WI     6    R4 3.2819835
10 Gene 1    WM     6    R1 2.6273345
# ... with 23 more rows
```
…
